<svg width="16" height="16" version="1.1" xmlns="http://www.w3.org/2000/svg">
 <path d="m8 0.39258-2.1191 5.4941-5.8809 0.31641 2.4004 1.9512 2.1699 1.7637-1.5195 5.6914 4.9492-3.1992 4.9492 3.1992-1.5195-5.6914 2.1699-1.7637 2.4004-1.9512-5.8809-0.31641-2.1191-5.4941z" fill="#444444"/>
</svg>
