<svg width="16" height="16" version="1.1" xmlns="http://www.w3.org/2000/svg">
 <defs>
  <style id="current-color-scheme" type="text/css">.ColorScheme-Text { color:#444444; } .ColorScheme-Highlight { color:#4285f4; }</style>
 </defs>
 <path class="ColorScheme-Text" d="m8 0.99996c-1.8412 1.7236-4.9418 2.9918-6 3.25 0 4.6664 2.25 9.972 6 10.75 3.75-0.778 6-6.0836 6-10.75-1.059-0.2582-4.1589-1.5264-6-3.25zm3.363 5.0508 0.707 0.707-3.5348 3.5352-0.7071 0.707-2.8281-2.8281 0.707-0.7071 2.1211 2.1211z" fill="#444444" fill-rule="evenodd"/>
</svg>
