<?xml version="1.0" encoding="UTF-8" standalone="no"?>
<svg
   xmlns:dc="http://purl.org/dc/elements/1.1/"
   xmlns:cc="http://creativecommons.org/ns#"
   xmlns:rdf="http://www.w3.org/1999/02/22-rdf-syntax-ns#"
   xmlns:svg="http://www.w3.org/2000/svg"
   xmlns="http://www.w3.org/2000/svg"
   xmlns:sodipodi="http://sodipodi.sourceforge.net/DTD/sodipodi-0.dtd"
   xmlns:inkscape="http://www.inkscape.org/namespaces/inkscape"
   width="16"
   height="16"
   viewBox="0 0 12.8 12.8"
   version="1.1"
   id="svg2985"
   inkscape:version="0.48.4 r9939"
   sodipodi:docname="lubuntu_badge-symbolic.svg">
  <metadata
     id="metadata3018">
    <rdf:RDF>
      <cc:Work
         rdf:about="">
        <dc:format>image/svg+xml</dc:format>
        <dc:type
           rdf:resource="http://purl.org/dc/dcmitype/StillImage" />
        <dc:title />
      </cc:Work>
    </rdf:RDF>
  </metadata>
  <defs
     id="defs3016" />
  <sodipodi:namedview
     pagecolor="#ffffff"
     bordercolor="#444444"
     borderopacity="1"
     objecttolerance="10"
     gridtolerance="10"
     guidetolerance="10"
     inkscape:pageopacity="0"
     inkscape:pageshadow="2"
     inkscape:window-width="1280"
     inkscape:window-height="975"
     id="namedview3014"
     showgrid="false"
     fit-margin-top="10"
     fit-margin-left="10"
     fit-margin-right="10"
     fit-margin-bottom="10"
     inkscape:zoom="0.89001173"
     inkscape:cx="102.08062"
     inkscape:cy="425.05555"
     inkscape:window-x="1280"
     inkscape:window-y="25"
     inkscape:window-maximized="1"
     inkscape:current-layer="svg2985" />
  <path
     id="path2994"
     style="fill:#444444;fill-opacity:1"
     d="m 3.4325126,6.6782163 c 0.122743,-0.0983 0.238977,-0.25134 0.412863,-0.23801 -0.08741,0.26342 -0.246726,0.49493 -0.381558,0.73542 -0.64533,1.11042 -1.332504,2.19574 -1.9955023,3.2956297 0.045874,0.0505 0.090817,0.10165 0.1348313,0.15403 C 1.4435188,10.483656 1.3368936,10.295526 1.204232,10.130356 1.0811791,9.9819063 0.99470112,9.8086563 0.88652612,9.6496663 c 0.39736478,-0.49183 0.78791058,-0.98924 1.19643348,-1.47177 0.43146,-0.5157 0.855792,-1.04132 1.349553,-1.49968 z m -1.323826,-0.7221 c 0.182254,-0.0443 0.369468,-0.0812 0.557922,-0.0738 0.05796,0.003 0.139791,0.0201 0.139481,0.0939 9.31e-4,0.0973 -0.0375,0.19091 -0.07563,0.27892 -0.176055,0.375 -0.424951,0.70847 -0.651219,1.05372 -0.4587364,0.66847 -0.9156129,1.33851 -1.37589898,2.00607 -0.4782636,-0.92106 -0.7234395,-1.963 -0.7020525,-3.00028 0.00186,0.0908 0.00279,0.18192 0.00217,0.27304 0.022937,0.0186 0.046184,0.0372 0.06974,0.0555 0.6642377,-0.26808 1.34242348,-0.50423 2.03548748,-0.68708 z m 3.764117,-0.4565 c 0.106935,-0.093 0.221929,-0.18534 0.35955,-0.22686 0.117474,-0.0174 0.235877,0.0133 0.351181,0.0329 0.357381,0.0896 0.643161,0.34338 0.895466,0.59968 0.398914,0.43326 0.712281,0.93687 0.995272,1.45102 0.387446,0.69544 0.692753,1.43149 0.997751,2.16568 0.240217,0.6216897 0.473924,1.2461697 0.6803554,1.8802497 0.02263,0.0322 0.02139,0.13388 0.07904,0.10878 l 0.0217,-0.006 c -0.4516084,0.34556 -0.9552884,0.62014 -1.4791154,0.83987 -1.493992,0.60185 -3.216423,0.60681 -4.713825,0.0143 -0.732738,-0.29721 -1.419293,-0.71652 -1.996123,-1.25919 -0.1208832,-0.11218 -0.2529249,-0.21632 -0.3490115,-0.35206 0.045254,0.0453 0.090507,0.0905 0.1351412,0.13636 0.9779143,-1.3735397 1.9412603,-2.7576197 2.9442813,-4.1131797 0.336303,-0.44225 0.671367,-0.89038 1.07834,-1.27157 z m -2.08601,-4.94002997 c 1.633783,-0.74628 3.592091,-0.74628 5.225564,9.3e-4 1.3321954,0.59563997 2.4505204,1.66019997 3.1014294,2.96710997 0.911583,1.76248 0.915613,3.96411 0.0081,5.72877 -0.112514,0.25133 -0.269663,0.4785 -0.411003,0.71404 -0.186904,0.2544297 -0.368229,0.5144597 -0.590158,0.7406997 -0.183804,0.21786 -0.400774,0.4035 -0.614025,0.59193 -0.113134,-0.77882 -0.245176,-1.5548397 -0.397984,-2.3268297 -0.1664474,-0.74163 -0.3245254,-1.48605 -0.5498644,-2.2128 -0.293839,-0.96228 -0.64781,-1.91867 -1.190855,-2.77094 -0.264393,-0.39576 -0.57249,-0.7723 -0.965206,-1.0472 0.169237,-0.20919 0.173266,-0.49586 0.198063,-0.75123 -0.0028,-0.0896 0.0747,-0.14783 0.122433,-0.21446 0.134211,-0.17387 0.280511,-0.33842 0.404494,-0.52004 -0.249516,0.0322 -0.486323,0.11963 -0.72251,0.20206 -0.259744,0.106 -0.524447,0.22531 -0.725299,0.42614 -0.07346,0.0731 -0.188454,0.0611 -0.279891,0.0967 -0.463076,0.1531 -0.889887,0.39514 -1.311738,0.63594 -0.423711,0.23058 -0.828205,0.49308 -1.239828,0.74318 -0.960866,0.61115 -1.9093346,1.24183 -2.8416852,1.89543 -0.33537338,0.23275 -0.67105668,0.4655 -1.00643018176,0.69824 C 0.03945522,5.3245163 0.22170952,4.4920863 0.58280932,3.7380663 1.2179111,2.3363263 2.3821096,1.1868563 3.7868346,0.55959633 z"
     inkscape:connector-curvature="0" />
</svg>
