<svg width="16" height="16" version="1.1" xmlns="http://www.w3.org/2000/svg">
 <path d="m2 1c-1 0-1 1-1 1v12s0 1 1 1h12c1 0 1-1 1-1v-12s0-1-1-1h-3v2h2v7h-3c0 1.11-0.89 2-2 2s-2-0.89-2-2h-3v-7h8v-2z" fill="#444444"/>
</svg>
