<svg width="16" height="16" version="1.1" xmlns="http://www.w3.org/2000/svg">
<defs>
<style id="current-color-scheme" type="text/css">.ColorScheme-Text { color:#444444; } .ColorScheme-Highlight { color:#4285f4; } .ColorScheme-NeutralText { color:#ff9800; } .ColorScheme-PositiveText { color:#4caf50; } .ColorScheme-NegativeText { color:#f44336; }</style>
</defs>
<path d="m15 1.0098-14 14h12v-9.0098h2v-4.9902z" fill="#444444"/>
<path class="ColorScheme-NegativeText" d="m14 7v4l0.25 2h1.5l0.25-2v-4zm0 7v2h2v-2z" color="#f44336" fill="currentColor"/>
</svg>
