<svg xmlns="http://www.w3.org/2000/svg" width="22" height="22" version="1.1" viewBox="0 0 44 44">
 <path fill="#16a085" transform="scale(2)" d="m1 4v15c0 0.554 0.446 1 1 1h18c0.554 0 1-0.446 1-1v-15h-20z"/>
 <path fill="#08382e" d="m4 4c-1.108 0-2 0.892-2 2v2h40v-2c0-1.108-0.892-2-2-2z"/>
 <path fill="#fff" opacity=".1" d="m4 4c-1.108 0-2 0.892-2 2v1c0-1.108 0.892-2 2-2h36c1.108 0 2 0.892 2 2v-1c0-1.108-0.892-2-2-2z"/>
 <path opacity=".2" d="m2 38v1c0 1.108 0.892 2 2 2h36c1.108 0 2-0.892 2-2v-1c0 1.108-0.892 2-2 2h-36c-1.108 0-2-0.892-2-2z"/>
</svg>
